{
  "project_info": {
    "project_number": "1085980844697",
    "project_id": "tajraa-e7000",
    "storage_bucket": "tajraa-e7000.appspot.com"
  },
  "client": [
    {
      "client_info": {
        "mobilesdk_app_id": "1:1085980844697:android:fd72d1c2e94dde79c24e08",
        "android_client_info": {
          "package_name": "com.progiom.tajraa"
        }
      },
      "oauth_client": [
        {
          "client_id": "1085980844697-7t0vhj93oc1054tk6mi9u935bdg9f1si.apps.googleusercontent.com",
          "client_type": 1,
          "android_info": {
            "package_name": "com.progiom.tajraa",
            "certificate_hash": "7a58a81acc3f40565e09939317453330bddbc749"
          }
        },
        {
          "client_id": "1085980844697-52lo5pequ8fagi8ldssnhr4aqlt3td76.apps.googleusercontent.com",
          "client_type": 3
        }
      ],
      "api_key": [
        {
          "current_key": "AIzaSyCc2YEiA6IrFdAlV_AiN6CVXPObITDGcj4"
        }
      ],
      "services": {
        "appinvite_service": {
          "other_platform_oauth_client": [
            {
              "client_id": "1085980844697-52lo5pequ8fagi8ldssnhr4aqlt3td76.apps.googleusercontent.com",
              "client_type": 3
            }
          ]
        }
      }
    }
  ],
  "configuration_version": "1"
}